{
  "version": 2018083000,
  "url": "https://debconf19.debconf.org/schedule/pentabarf.xml",
  "title": "DebConf 19",
  "start": "2019-07-20",
  "end": "2019-07-28",
  "metadata": {
    "icon": "https://debconf19.debconf.org/static/img/favicon/favicon-196.095c311cf060.png",
    "links": [
      {
        "url": "https://debconf19.debconf.org/",
        "title": "Website"
      }
    ]
  }
}
