<?xml version="1.0" encoding="UTF-8" standalone="no"?>
<svg
   xmlns:dc="http://purl.org/dc/elements/1.1/"
   xmlns:cc="http://creativecommons.org/ns#"
   xmlns:rdf="http://www.w3.org/1999/02/22-rdf-syntax-ns#"
   xmlns:svg="http://www.w3.org/2000/svg"
   xmlns="http://www.w3.org/2000/svg"
   xmlns:sodipodi="http://sodipodi.sourceforge.net/DTD/sodipodi-0.dtd"
   xmlns:inkscape="http://www.inkscape.org/namespaces/inkscape"
   id="svg140"
   width="150"
   height="150"
   version="1.1"
   viewBox="0 0 39.687656 39.687"
   sodipodi:docname="favicon.svg"
   inkscape:version="0.92.3 (2405546, 2018-03-11)">
  <metadata
     id="metadata29">
    <rdf:RDF>
      <cc:Work
         rdf:about="">
        <dc:format>image/svg+xml</dc:format>
        <dc:type
           rdf:resource="http://purl.org/dc/dcmitype/StillImage" />
        <dc:title></dc:title>
      </cc:Work>
    </rdf:RDF>
  </metadata>
  <defs
     id="defs27" />
  <sodipodi:namedview
     pagecolor="#ffffff"
     bordercolor="#666666"
     borderopacity="1"
     objecttolerance="10"
     gridtolerance="10"
     guidetolerance="10"
     inkscape:pageopacity="0"
     inkscape:pageshadow="2"
     inkscape:window-width="1920"
     inkscape:window-height="1056"
     id="namedview25"
     showgrid="false"
     inkscape:zoom="0.946875"
     inkscape:cx="-29.570957"
     inkscape:cy="75"
     inkscape:window-x="0"
     inkscape:window-y="24"
     inkscape:window-maximized="0"
     inkscape:current-layer="svg140" />
  <g
     id="g881"
     transform="translate(-45.059591,1.7153713e-4)">
    <path
       style="opacity:0.98999999;fill:#ff9955;stroke-width:0.86053997"
       inkscape:connector-curvature="0"
       d="m 61.304917,27.342338 c -0.954338,-0.01205 -1.572206,0.151197 -1.572206,0.151197 l -0.86054,0.101027 c -1.812728,0.7454 0.705643,1.83493 0.81235,1.916767 0,0 0.07745,0 0.08605,0.01205 -0.328727,0.05852 -0.671222,0.119787 -1.034714,0.174775 -1.110096,0.173399 -2.273632,0.548939 -3.470041,1.157082 -0.842985,0.428549 -1.60551,0.923102 -2.271998,1.417138 -0.910795,0.671995 -1.615233,1.335472 -2.159955,1.97253 -0.466327,0.540935 -0.764504,1.023182 -0.93317,1.38349 -0.08519,0.179939 -0.137686,0.327779 -0.163072,0.445673 -0.01377,0.05852 -0.01979,0.109805 -0.01635,0.16204 0,0.02582 0,0.05335 0.01979,0.08734 0.01635,0.0327 0.04905,0.07401 0.09612,0.09234 0.05507,0.02237 0.107224,0.01205 0.13631,0 0.03012,-0.01377 0.04733,-0.02582 0.06368,-0.04217 0.03356,-0.03012 0.0611,-0.06282 0.09483,-0.102318 0.06626,-0.08261 0.150509,-0.195773 0.260744,-0.339741 0.220814,-0.287162 0.545324,-0.690497 1.010188,-1.146067 0.56744,-0.55066 1.249332,-1.119477 2.140679,-1.733558 0.652634,-0.447567 1.384351,-0.903825 2.170368,-1.305267 1.120337,-0.571657 2.171142,-0.94014 3.179695,-1.14383 0.836445,-0.170043 1.874256,-0.460475 2.387999,-0.598247 0.38208,-0.102319 0.609262,-0.160835 0.87689,-0.214447 0.128221,-0.02496 0.232346,-0.03959 0.326145,-0.05249 1.289949,0.107309 2.687466,0.236304 3.397412,0.347486 0.368311,0.05766 0.846771,0.15593 1.062767,0.218405 l 0.393266,0.113592 -0.03442,-0.136138 c -0.02582,-0.09862 -0.07745,-0.159114 -0.183295,-0.219868 -0.465552,-0.261862 -0.562793,-0.333631 -0.594633,-0.441371 -0.03442,-0.1086 -0.02582,-0.111096 0.124778,-0.159372 0.08691,-0.02754 0.308934,-0.06626 0.498253,-0.08734 l 0.348518,-0.037 -0.183295,-0.141817 C 67.048161,28.988379 66.199669,28.537628 65.605036,28.286178 65.093875,28.070011 64.79871,28.157097 64.013037,27.861502 62.996739,27.479766 62.051866,27.363852 61.310081,27.3543 Z m 4.948966,1.448117 c 0.270209,-0.01635 0.585167,0.211348 0.524929,0.421664 -0.03442,0.125811 -0.160921,0.109805 -0.225461,-0.03012 -0.05163,-0.103522 -0.07745,-0.123487 -0.202227,-0.135104 -0.07745,-0.01205 -0.17469,0 -0.208251,0.02237 -0.07745,0.04647 -0.203087,-0.04733 -0.178131,-0.133728 0.0086,-0.03614 0.0895,-0.09105 0.17641,-0.122283 0.03442,-0.01205 0.06884,-0.01979 0.11187,-0.02237 z m -14.34262,-1.320499 c -0.158512,-0.53603 -0.342409,-1.171281 -0.01979,-1.629949 0.07831,-0.113505 0.202916,-0.196203 0.339914,-0.221675 0.129425,-0.02409 0.265132,0 0.387673,0.04475 0.289055,0.116001 0.527769,0.329157 0.762783,0.533965 0.242672,0.211091 0.473727,0.434917 0.695832,0.667005 0.04217,0.04475 0.08734,0.08855 0.130458,0.132093 0.01635,0.01721 0.04389,0.0327 0.04905,0.05594 h -0.01205 c -0.01377,0 -0.01979,0 -0.03356,-0.01205 -0.04647,-0.01377 -0.02582,0.221934 -0.07228,0.206874 -1.009155,-0.49808 -1.5198,0.04131 -2.231466,0.215049 z m 1.688723,-1.319982 c -0.09105,-0.234067 -0.208594,-0.423988 -0.22701,-0.674233 -0.01205,-0.134761 0,-0.27959 0.07315,-0.391288 0.05077,-0.07573 0.139235,-0.122283 0.230108,-0.13106 0.09604,-0.01291 0.192761,0.01463 0.279848,0.05335 0.321584,0.145346 0.556253,0.430184 0.791611,0.693424 0.158425,0.187769 0.123487,0.194654 0.263067,0.314183 -0.475965,0 -0.945045,0.05335 -1.4112,0.134932 z"
       id="path4969" />
    <path
       style="fill:#cd0000;stroke-width:0.86053997"
       inkscape:connector-curvature="0"
       d="M 63.1895,3.2050516 C 63.163684,2.9116075 62.927896,2.8182389 62.601751,2.646303 62.23344,2.474195 61.83501,2.3234284 61.438301,2.4952782 c -0.949176,0.3945576 -1.813158,0.6676069 -2.606576,0.8397149 -0.325628,0.071425 -0.418738,0.3079013 -0.546184,0.5101282 -0.127446,0.1922446 -0.07573,0.3492071 0,0.5616744 0.08519,0.2124673 0.02754,0.3039427 0.268058,0.4151245 0.254892,0.1209919 0.552639,0.1417309 0.877923,0.071425 0.5103,-0.1110096 1.034369,-0.2427583 1.558438,-0.4146942 0.06884,2.4580465 0.0981,5.87723 0.05163,10.236984 l -0.02582,2.559246 -0.01721,2.559246 c -0.01721,1.932256 0,3.63165 0.02582,5.118578 0,0.252912 0.113592,0.445157 0.354543,0.59687 0.212553,0.131491 0.514603,0.07487 0.826118,0.07487 0.296887,0 0.533535,0.05594 0.746088,-0.07487 0.240952,-0.151713 0.353682,-0.343958 0.339914,-0.59687 -0.02582,-1.547682 -0.04303,-3.328053 -0.02582,-5.361337 l 0.02582,-2.680668 0.02582,-2.680496 c 0.04303,-4.5016566 0,-8.0825357 -0.09982,-10.7231887 0,-0.1110097 0.03442,-0.2108323 -0.03442,-0.3017914 z"
       id="path3782" />
    <path
       style="stroke-width:0.86053997"
       inkscape:connector-curvature="0"
       d="m 53.754539,24.767602 h -0.101027 c -0.142591,0.01377 -0.277954,0.08519 -0.364094,0.210661 -0.11471,0.168579 -0.116001,0.357382 -0.104814,0.507546 0.01205,0.103609 0.02668,0.203604 0.04991,0.301619 -0.159372,-0.12779 -0.333717,-0.248954 -0.540935,-0.33191 -0.07745,-0.03098 -0.159803,-0.05249 -0.245254,-0.06368 -0.08519,-0.01205 -0.174087,-0.01205 -0.262809,0.01205 -0.19672,0.03614 -0.367365,0.15068 -0.479665,0.311859 -0.197752,0.284323 -0.234669,0.617438 -0.206272,0.930502 0,0.02151 0.01205,0.04389 0.01205,0.06454 -0.30007,0.116001 -0.581295,0.241037 -0.840403,0.373388 -1.472298,0.751424 -2.020548,1.584254 -1.981394,1.624097 0.06282,0.06196 0.758997,-0.618212 2.174155,-1.210091 0.234669,-0.09862 0.485602,-0.190438 0.749702,-0.277094 0.03012,0.107309 0.05852,0.212209 0.08734,0.310999 0.142591,-0.01205 0.285957,-0.01377 0.419599,-0.123487 -0.07831,-0.267542 -0.159458,-0.548595 -0.18252,-0.802024 -0.02582,-0.253084 0.01205,-0.466584 0.129081,-0.640758 0.04647,-0.06712 0.123573,-0.117291 0.200678,-0.132007 0.08003,-0.01463 0.176238,0 0.266681,0.03356 0.241295,0.09724 0.463917,0.289314 0.700221,0.494983 0.236649,0.206272 0.462713,0.425451 0.68129,0.653666 0.037,0.04217 0.08003,0.08089 0.117291,0.119787 0.04389,0.04647 0.08984,0.09604 0.109805,0.120992 0,0 0.02582,0.01979 0.102319,0.01979 0.02582,0 0.05077,0 0.09604,-0.01979 0.04475,-0.01979 0.131404,-0.103523 0.131404,-0.202743 v -0.05077 c -0.08089,-0.130372 -0.136395,-0.190179 -0.233808,-0.289055 -0.01635,-0.01463 -0.03012,-0.03012 -0.04475,-0.04647 1.253119,-0.156188 2.61217,-0.184156 4.121385,-0.06626 0.28983,0.02237 0.576992,0.04991 0.860109,0.08089 2.099718,0.231227 3.847475,0.648245 5.333627,1.152951 0.830421,0.282344 1.452592,0.548164 1.999035,0.832143 0.894101,0.470715 1.301136,0.892121 1.35449,0.848922 0.06024,-0.05077 -0.264186,-0.581811 -1.165171,-1.172141 -0.527511,-0.348949 -1.170335,-0.684216 -1.999895,-1.016728 -1.490456,-0.597645 -3.300171,-1.085399 -5.444637,-1.332977 -0.290002,-0.03356 -0.584737,-0.06282 -0.883172,-0.08605 -0.5862,-0.04647 -1.153038,-0.06712 -1.702579,-0.06454 -0.508665,0 -1.001238,0.02495 -1.479612,0.06626 -0.09982,-0.103523 -0.195773,-0.215823 -0.297661,-0.329931 -0.231829,-0.25928 -0.479751,-0.569591 -0.852623,-0.738257 -0.08089,-0.03614 -0.173313,-0.06454 -0.272705,-0.07143 z m -0.01979,0.369516 c 0.04389,0 0.09363,0.01463 0.143538,0.03872 0.270038,0.122196 0.491541,0.381219 0.730599,0.64833 0.037,0.04217 0.07573,0.08519 0.113505,0.128737 -0.35024,0.03959 -0.691186,0.09113 -1.024559,0.151541 -0.0697,-0.21066 -0.130114,-0.459442 -0.143366,-0.64179 -0.01205,-0.118583 0,-0.219094 0.04217,-0.27391 0.01635,-0.02496 0.05594,-0.04733 0.09612,-0.05077 h 0.04217 z m 2.274321,1.907903 c -0.335008,0 -0.638434,0.169269 -0.719583,0.389997 -0.09234,0.250245 0.133297,0.483796 0.503157,0.521401 0.369258,0.037 0.743679,-0.134846 0.835757,-0.385263 0.09105,-0.250331 -0.133986,-0.483882 -0.503416,-0.521402 h -0.116001 z m 0.262551,0.260228 c 0.02582,0 0.04991,0 0.07401,0.01205 0.02582,0 0.04819,0.01463 0.07315,0.03614 0.02668,0.02151 0.04475,0.0611 0.04475,0.09974 0,0.07745 -0.04991,0.111095 -0.09105,0.136912 -0.04131,0.02582 -0.08855,0.04389 -0.141386,0.05507 -0.05335,0.01205 -0.102319,0.01205 -0.149476,0 -0.02582,0 -0.04819,-0.01463 -0.07229,-0.03614 -0.02668,-0.02151 -0.04647,-0.0611 -0.04647,-0.09974 0,-0.07745 0.04991,-0.111096 0.08984,-0.13717 0.04217,-0.02582 0.08855,-0.04475 0.141558,-0.05593 0.02668,0 0.05077,-0.01205 0.07573,-0.01205 z m 9.747337,1.548283 c -0.09552,0.05766 -0.162643,0.08734 -0.08605,0.179423 0.06024,0.03786 0.09466,0.05249 0.154897,0.01721 0.180713,-0.09105 0.277094,-0.05594 0.354542,0 0.07745,0.04905 0.06024,0.04733 0.163503,0.205669 0.02582,0.126843 0.174689,0.113505 0.172108,-0.03959 -0.06024,-0.138117 -0.06024,-0.181574 -0.144571,-0.265305 -0.153176,-0.167288 -0.345937,-0.200677 -0.617007,-0.09483 z m 1.360513,0.610467 c -0.388964,0.01205 -0.801162,0.137171 -0.81321,0.137257 l 1.1798,-0.09354 c -0.11187,-0.03528 -0.236648,-0.04647 -0.36659,-0.04389 z m -0.801162,0.152402 0.818373,0.870092 c 0.154897,-0.497478 -0.582586,-0.587146 -0.818373,-0.870092 z m -2.839782,0.398086 c -0.529233,0 -1.106655,0.04217 -1.726244,0.124864 -1.296834,0.174087 -2.684024,0.558577 -4.092126,1.208973 -0.149217,0.06884 -0.297058,0.140354 -0.442661,0.213328 -1.498975,0.751337 -2.798907,1.689068 -3.830866,2.524222 -2.146617,1.737 -3.365056,3.115843 -3.31721,3.171262 0.117292,0.133728 1.486497,-1.085744 3.679411,-2.70287 1.047363,-0.772077 2.341099,-1.659466 3.777943,-2.371735 0.140354,-0.06884 0.281654,-0.136912 0.424848,-0.203173 1.348983,-0.622945 2.661306,-1.013028 3.89446,-1.222311 3.07557,-0.524585 5.293182,-0.03872 5.318137,-0.173743 0,-0.02409 -1.390632,-0.59231 -3.685692,-0.568817 z"
       id="path4875" />
    <path
       style="fill:#cd0000;stroke-width:0.86053997"
       inkscape:connector-curvature="0"
       d="m 71.760478,7.7332131 c -0.02582,0.125983 1.24176,-0.3277797 2.826874,1.2847862 0.630776,0.6392952 1.230573,1.6354567 1.364817,2.9013107 0.09982,0.992375 -0.08692,2.140765 -0.73232,3.172295 -0.555048,0.884979 -1.437102,1.660498 -2.560106,2.071491 -1.104073,0.399721 -2.397465,0.429926 -3.620292,0 -1.118702,-0.393438 -2.146187,-1.149853 -2.890554,-2.183792 -0.695316,-0.96587 -1.135052,-2.140937 -1.252086,-3.389151 -0.104125,-1.181349 0.06024,-2.4043484 0.494811,-3.5593652 0.663476,-1.768926 1.958589,-3.381578 3.72872,-4.3611307 1.442265,-0.7943644 3.17195,-1.1298029 4.862051,-0.8651008 0.290862,0.050772 0.579143,0.1135913 0.862261,0.1891467 2.332924,0.6859364 4.130592,2.4662216 5.112468,4.4785083 1.048138,2.1448099 1.285647,4.5100897 1.108375,6.6396687 -0.365729,4.464653 -2.421559,8.131156 -4.651218,10.579479 -3.226165,3.543531 -6.306037,4.608535 -7.942784,5.00404 -0.324424,0.07831 -0.664337,0.113505 -0.962945,0.117291 -0.421664,0 -0.757275,-0.05077 -0.834724,-0.134416 -0.02582,-0.07142 0.314098,0 0.74781,0 0.308073,0.01205 0.661755,-0.01377 0.958641,-0.132954 1.572207,-0.628194 4.553978,-2.070975 7.401505,-5.415464 2.047224,-2.401853 3.913736,-5.925936 4.19083,-10.102739 C 80.102553,12.037548 79.872789,9.8662336 78.916729,7.9851792 78.032094,6.2388854 76.46419,4.6728747 74.516788,4.1295297 74.281861,4.0658498 74.04263,4.0035467 73.799098,3.970674 72.38523,3.7487408 70.905962,4.0334935 69.685716,4.6969698 68.179771,5.5138804 67.044719,6.9109671 66.455249,8.432746 c -0.38294,0.997452 -0.546443,2.050237 -0.463831,3.056294 0.09122,1.059153 0.443178,2.065382 1.011995,2.879797 0.60582,0.870006 1.451731,1.526856 2.369067,1.868577 0.998226,0.374507 2.079925,0.383284 2.992097,0.07487 0.929384,-0.307643 1.697846,-0.934461 2.188354,-1.659466 C 75.12519,13.8094 75.340325,12.82718 75.291274,11.968533 75.231036,10.870312 74.756018,9.9524597 74.234531,9.3358828 73.025472,7.9073864 71.74671,7.8116943 71.760478,7.7271032 Z"
       id="path1105" />
  </g>
</svg>
